@startuml

|s1| Client
|s2| Microservices
|s3| Auth Service

|s1|
start
:Yêu cầu truy cập tài nguyên;
|s2|
:Yêu cầu xác thực người dùng;
|s3|
if (xác thực?) then (có)
    :Trả ID hệ thống;
|s2|
    :Ánh xạ tài khoản dịch vụ;
    if (có quyền truy cập?) then (có)
        :Trả tài nguyên yêu cầu;
    else (không)
        stop
    endif
else (không)
|s3|
    stop
endif

|s2|
stop

@enduml

